log mining
…
logged_measurements %>% group_by(sample_name, output_measured, value_measured,) %>%
  summarize(distinct_values = length(unique(value)))

## Warning: Grouping rowwise data frame strips rowwise nature

## # A tibble: 187 x 4
## # Groups:   sample_name, output_measured [119]
##    sample_name output_measured      value_measured distinct_values
##    <chr>       <chr>                <chr>                    <int>
##  1 CCLE_BLCA   " cutadapt R1 "      linecount                    2
##  2 CCLE_BLCA   " cutadapt R1 "      md5sum                       3
##  3 CCLE_BLCA   " cutadapt R2 "      linecount                    2
##  4 CCLE_BLCA   " cutadapt R2 "      md5sum                       3
##  5 CCLE_BLCA   " fastq R1 "         linecount                    1
##  6 CCLE_BLCA   " fastq R1 "         md5sum                       3
##  7 CCLE_BLCA   " fastq R2 "         linecount                    1
##  8 CCLE_BLCA   " fastq R2 "         md5sum                       3
##  9 CCLE_BLCA   " kallisto results " md5sum                       2
## 10 CCLE_BLCA   " rsem results "     md5sum                       2
## #  with 177 more rows
…
